goleiro t1,data/images/players/footballPlayer.png
2 t1,data/images/players/footballPlayer.png
3 t1,data/images/players/footballPlayer.png
4 t1,data/images/players/footballPlayer.png
5 t1,data/images/players/footballPlayer.png
6 t1,data/images/players/footballPlayer.png
7 t1,data/images/players/footballPlayer.png
8 t1,data/images/players/footballPlayer.png
9 t1,data/images/players/footballPlayer.png
10 t1,data/images/players/footballPlayer.png
11 t1,data/images/players/footballPlayer.png
12 t1,data/images/players/footballPlayer.png
13 t1,data/images/players/footballPlayer.png
14 t1,data/images/players/footballPlayer.png
goleiro t2,data/images/players/footballPlayer.png
2,data/images/players/footballPlayer.png
3,data/images/players/footballPlayer.png
4,data/images/players/footballPlayer.png
5,data/images/players/footballPlayer.png
6,data/images/players/footballPlayer.png
7,data/images/players/footballPlayer.png
8,data/images/players/footballPlayer.png
9,data/images/players/robben.png
10,data/images/players/footballPlayer.png
11,data/images/players/footballPlayer.png
12,data/images/players/footballPlayer.png
13,data/images/players/footballPlayer.png
14,data/images/players/footballPlayer.png
